{
    "photos": {
        "page": 1,
        "pages": 6001,
        "perpage": 10,
        "total": 60002,
        "photo": [
            {
                "id": "53301090562",
                "owner": "183120664@N08",
                "secret": "93949b649f",
                "server": "65535",
                "farm": 66,
                "title": "USAF Boeing F-15E Strike Eagle 91-0307, 492 FS, 48 FW",
                "ispublic": 1,
                "isfriend": 0,
                "isfamily": 0
            },
            {
                "id": "53295560328",
                "owner": "125928841@N08",
                "secret": "c0c9ba5150",
                "server": "65535",
                "farm": 66,
                "title": "foster.aguilar-12",
                "ispublic": 1,
                "isfriend": 0,
                "isfamily": 0
            },
            {
                "id": "53295559598",
                "owner": "125928841@N08",
                "secret": "1da5854dc6",
                "server": "65535",
                "farm": 66,
                "title": "foster.serrano-12",
                "ispublic": 1,
                "isfriend": 0,
                "isfamily": 0
            },
            {
                "id": "53294434712",
                "owner": "125928841@N08",
                "secret": "a9fb4fe576",
                "server": "65535",
                "farm": 66,
                "title": "foster.serrano",
                "ispublic": 1,
                "isfriend": 0,
                "isfamily": 0
            },
            {
                "id": "53291866368",
                "owner": "14802581@N07",
                "secret": "debebdefae",
                "server": "65535",
                "farm": 66,
                "title": "1:72 Nanchang Aircraft Factory J-9C ‘天虎; ‘ (Tiān hǔ; NATO code: Freshman); ‘52163 (13 Red)' of the 104th Air Reg., 35th Div., Chinese People's Liberation Army Air Force (PLAAF); Changsha-Datuopo AB (Guangzhou/Hunan Province), 1997 (What-if/kitbashing)",
                "ispublic": 1,
                "isfriend": 0,
                "isfamily": 0
            },
            {
                "id": "53292087845",
                "owner": "14802581@N07",
                "secret": "68068e98d2",
                "server": "65535",
                "farm": 66,
                "title": "1:72 Nanchang Aircraft Factory J-9C ‘天虎; ‘ (Tiān hǔ; NATO code: Freshman); ‘52163 (13 Red)' of the 104th Air Reg., 35th Div., Chinese People's Liberation Army Air Force (PLAAF); Changsha-Datuopo AB (Guangzhou/Hunan Province), 1997 (What-if/kitbashing)",
                "ispublic": 1,
                "isfriend": 0,
                "isfamily": 0
            },
            {
                "id": "53291623841",
                "owner": "14802581@N07",
                "secret": "54f5693f59",
                "server": "65535",
                "farm": 66,
                "title": "1:72 Nanchang Aircraft Factory J-9C ‘天虎; ‘ (Tiān hǔ; NATO code: Freshman); ‘52163 (13 Red)' of the 104th Air Reg., 35th Div., Chinese People's Liberation Army Air Force (PLAAF); Changsha-Datuopo AB (Guangzhou/Hunan Province), 1997 (What-if/kitbashing)",
                "ispublic": 1,
                "isfriend": 0,
                "isfamily": 0
            },
            {
                "id": "53291865943",
                "owner": "14802581@N07",
                "secret": "b27a02bc66",
                "server": "65535",
                "farm": 66,
                "title": "1:72 Nanchang Aircraft Factory J-9C ‘天虎; ‘ (Tiān hǔ; NATO code: Freshman); ‘52163 (13 Red)' of the 104th Air Reg., 35th Div., Chinese People's Liberation Army Air Force (PLAAF); Changsha-Datuopo AB (Guangzhou/Hunan Province), 1997 (What-if/kitbashing)",
                "ispublic": 1,
                "isfriend": 0,
                "isfamily": 0
            },
            {
                "id": "53291865813",
                "owner": "14802581@N07",
                "secret": "b19ae05ac2",
                "server": "65535",
                "farm": 66,
                "title": "1:72 Nanchang Aircraft Factory J-9C ‘天虎; ‘ (Tiān hǔ; NATO code: Freshman); ‘52163 (13 Red)' of the 104th Air Reg., 35th Div., Chinese People's Liberation Army Air Force (PLAAF); Changsha-Datuopo AB (Guangzhou/Hunan Province), 1997 (What-if/kitbashing)",
                "ispublic": 1,
                "isfriend": 0,
                "isfamily": 0
            },
            {
                "id": "53267395103",
                "owner": "48175753@N03",
                "secret": "e95b2857f1",
                "server": "65535",
                "farm": 66,
                "title": "South At Trent Junction",
                "ispublic": 1,
                "isfriend": 0,
                "isfamily": 0
            }
        ]
    },
    "stat": "ok"
}
